{
  "earthquake": "\ue903",
  "tsunami": "\ue92f",
  "rockFall": "\ue92f",
  "landslide": "\ue907",
  "ashFall": "\ue92f",
  "lahar": "\ue92f",
  "pyroclasticFlow": "\ue92f",
  "lavaFlow": "\ue92f",
  "extremeWeather": "\ue904",
  "fog": "\ue904",
  "storm": "\ue904",
  "waveAction": "\ue92f",
  "drought": "\ue904",
  "glacialLakeOutburst": "\ue904",
  "wildfire": "\ue905",
  "epidemic": "\ue930",
  "insectInfestation": "\ue92d",
  "animalAccident": "\ue933",
  "extraterrestrialImpact": "\ue92e",
  "spaceWeather": "\ue92e",
  "chemicalSpill": "\ue92d",
  "industrialCollapse": "\ue932",
  "industrialExplosion": "\ue932",
  "industrialFire": "\ue905",
  "gasLeak": "\ue92d",
  "poisoning": "\ue92d",
  "radiation": "\ue92d",
  "oilSpill": "\ue92d",
  "industrialAccident": "\ue932",
  "airAccident": "\ue937",
  "roadAccident": "\ue937",
  "traffic": "\ue937",
  "railAccident": "\ue937",
  "waterAccident": "\ue937",
  "collapse": "\ue933",
  "explosion": "\ue933",
  "fire": "\ue905",
  "other": "\ue933",
  "extraTropicalStorm": "\ue904",
  "tropicalStorm": "\ue904",
  "derecho": "\ue904",
  "hail": "\ue904",
  "thunderstorms": "\ue904",
  "rain": "\ue904",
  "tornado": "\ue904",
  "dustStorm": "\ue904",
  "blizzard": "\ue904",
  "stormSurge": "\ue904",
  "wind": "\ue904",
  "coldWave": "\ue904",
  "heatWave": "\ue904",
  "snow": "\ue904",
  "ice": "\ue904",
  "frost": "\ue904",
  "coastalEvent": "\ue904",
  "coastalErosion": "\ue92f",
  "flood": "\ue906",
  "rainFlood": "\ue906",
  "coastalFlood": "\ue906",
  "riverineFlood": "\ue906",
  "flashFlood": "\ue906",
  "iceJamFlood": "\ue906",
  "avalanches": "\ue902",
  "debris": "\ue92f",
  "mudflow": "\ue92f",
  "forestFire": "\ue905",
  "landFire": "\ue905",
  "pastureFire": "\ue905",
  "viralDisease": "\ue92d",
  "bacterialDisease": "\ue92d",
  "parasiticDisease": "\ue92d",
  "fungalDisease": "\ue92d",
  "prionDisease": "\ue92d",
  "grasshoper": "\ue92d",
  "locust": "\ue92d",
  "airburst": "\ue92d",
  "energeticParticles": "\ue92e",
  "geomagneticStorm": "\ue92e",
  "shockwave": "\ue92e",
  "none": ""
}
