<?xml version="1.0" encoding="utf-8"?>
<!-- Generator: Adobe Illustrator 21.0.0, SVG Export Plug-In . SVG Version: 6.00 Build 0)  -->
<svg version="1.1" id="Capa_1" 
	xmlns="http://www.w3.org/2000/svg" 
	xmlns:xlink="http://www.w3.org/1999/xlink" x="0px" y="0px" viewBox="0 0 180 239" style="enable-background:new 0 0 180 239;" xml:space="preserve">
	<style type="text/css">
	.st0{clip-path:url(#SVGID_2_);fill:#CF6041;}
	.st1{clip-path:url(#SVGID_2_);fill:#EDCB97;}
	.st2{clip-path:url(#SVGID_2_);fill:#E8BB84;}
	.st3{clip-path:url(#SVGID_2_);fill:#767A80;}
	.st4{clip-path:url(#SVGID_2_);fill:#E8CDA6;}
	.st5{clip-path:url(#SVGID_2_);fill:#C3C3C3;}
	.st6{clip-path:url(#SVGID_2_);fill:#70747C;}
	.st7{clip-path:url(#SVGID_2_);fill:#2D3A49;}
	.st8{fill:none;stroke:#504F4B;stroke-width:2;stroke-linecap:round;stroke-linejoin:round;stroke-miterlimit:10;}
	.st9{clip-path:url(#SVGID_4_);fill:#CF6041;}
	.st10{clip-path:url(#SVGID_4_);fill:#E8CDA6;}
	.st11{clip-path:url(#SVGID_4_);fill:#E8CEA8;}
	.st12{clip-path:url(#SVGID_4_);}
	.st13{fill:#ECD1AA;}
	.st14{fill:#26323E;}
	.st15{fill:#ECCB9A;}
	.st16{fill:#4C6970;}
	.st17{fill:#F2F2F1;}
	.st18{fill:#E5BB86;}
	.st19{fill:#E8CEA8;}
	.st20{fill:#2C3A48;}
	.st21{opacity:0.1;fill:#2D3A49;}
	.st22{fill:#303B4A;}
	.st23{fill:#2D3A49;}
	.st24{fill:#E1E1DF;}
	.st25{clip-path:url(#SVGID_10_);fill:#95BDC3;}
	.st26{clip-path:url(#SVGID_10_);fill:#F4E0C6;}
	.st27{clip-path:url(#SVGID_10_);fill:#E2C9AF;}
	.st28{clip-path:url(#SVGID_10_);fill:#AA4444;}
	.st29{clip-path:url(#SVGID_10_);fill:#EAD2B5;}
	.st30{clip-path:url(#SVGID_10_);fill:#A04242;}
	.st31{clip-path:url(#SVGID_10_);fill:#DDB237;}
	.st32{clip-path:url(#SVGID_10_);fill:#E8CDA6;}
	.st33{clip-path:url(#SVGID_12_);fill:#CF6041;}
	.st34{clip-path:url(#SVGID_12_);fill:#C4A578;}
	.st35{clip-path:url(#SVGID_12_);fill:#A58760;}
	.st36{clip-path:url(#SVGID_12_);fill:#95BDC3;}
	.st37{clip-path:url(#SVGID_12_);}
	.st38{clip-path:url(#SVGID_14_);}
	.st39{fill:#95BDC3;}
	.st40{fill:#E7F6F7;}
	.st41{fill:#CAEBEF;}
	.st42{clip-path:url(#SVGID_12_);fill:#AF9268;}
	.st43{clip-path:url(#SVGID_12_);fill:#C3C3C3;}
	.st44{opacity:0.42;clip-path:url(#SVGID_12_);fill:#8AB8BC;}
	.st45{clip-path:url(#SVGID_12_);fill:#2D3A49;}
	.st46{clip-path:url(#SVGID_12_);fill:#E8CDA6;}
	.st47{clip-path:url(#SVGID_16_);fill:#95BDC3;}
	.st48{clip-path:url(#SVGID_16_);fill:#767A80;}
	.st49{clip-path:url(#SVGID_16_);fill:#70747C;}
	.st50{clip-path:url(#SVGID_16_);}
	.st51{clip-path:url(#SVGID_18_);}
	.st52{fill:#504F4B;}
	.st53{clip-path:url(#SVGID_16_);fill:#F4E0C6;}
	.st54{clip-path:url(#SVGID_16_);fill:#EAD2B5;}
	.st55{clip-path:url(#SVGID_16_);fill:#C3C3C3;}
	.st56{opacity:0.19;clip-path:url(#SVGID_16_);fill:#70747C;}
	.st57{clip-path:url(#SVGID_16_);fill:#A0835D;}
	.st58{clip-path:url(#SVGID_16_);fill:#E8CDA6;}
	.st59{clip-path:url(#SVGID_20_);fill:#95BDC3;}
	.st60{clip-path:url(#SVGID_20_);fill:#EDCB97;}
	.st61{clip-path:url(#SVGID_20_);fill:#E8BB84;}
	.st62{clip-path:url(#SVGID_20_);fill:#504F4B;}
	.st63{clip-path:url(#SVGID_20_);fill:#E8CDA6;}
	.st64{clip-path:url(#SVGID_20_);fill:#4C4B48;}
	.st65{clip-path:url(#SVGID_20_);fill:#C6C6C6;}
	.st66{fill:#DDB237;}
	.st67{fill:#D3A42F;}
	.st68{clip-path:url(#SVGID_22_);fill:#CF6041;}
	.st69{clip-path:url(#SVGID_22_);fill:#A58760;}
	.st70{clip-path:url(#SVGID_22_);fill:#997A56;}
	.st71{clip-path:url(#SVGID_22_);fill:#FFF3E1;}
	.st72{clip-path:url(#SVGID_22_);fill:#AF9268;}
	.st73{clip-path:url(#SVGID_22_);fill:#C3C3C3;}
	.st74{clip-path:url(#SVGID_22_);fill:#F7E8D5;}
	.st75{clip-path:url(#SVGID_22_);fill:#2D3A49;}
	.st76{clip-path:url(#SVGID_22_);fill:#E8CDA6;}
	.st77{fill:#FCFCFC;}
	.st78{clip-path:url(#SVGID_24_);fill:#CF6041;}
	.st79{clip-path:url(#SVGID_24_);fill:#846645;}
	.st80{clip-path:url(#SVGID_24_);fill:#7C5D3E;}
	.st81{clip-path:url(#SVGID_24_);fill:#FFFFFF;}
	.st82{clip-path:url(#SVGID_24_);fill:#967951;}
	.st83{clip-path:url(#SVGID_24_);fill:#C6C6C6;}
	.st84{clip-path:url(#SVGID_24_);fill:#C3C3C3;}
	.st85{clip-path:url(#SVGID_24_);fill:#F7F7F7;}
	.st86{clip-path:url(#SVGID_24_);fill:#E8CDA6;}
	.st87{fill:#A0835D;}
	.st88{fill:#F4E0C6;}
	.st89{fill:#846645;}
	.st90{fill:#F4E9DF;fill-opacity:0.46;stroke:#2D3A49;stroke-linecap:round;stroke-linejoin:round;stroke-miterlimit:10;}
	.st91{fill:#F7F7F7;}
	.st92{clip-path:url(#SVGID_26_);fill:#95BDC3;}
	.st93{clip-path:url(#SVGID_26_);fill:#E8CDA6;}
	.st94{clip-path:url(#SVGID_26_);fill:#E8CEA8;}
	.st95{clip-path:url(#SVGID_26_);}
	.st96{fill:#1F2A33;}
	.st97{fill:#AA4444;}
	.st98{fill:#A04242;}
	.st99{clip-path:url(#SVGID_32_);fill:#95BDC3;}
	.st100{clip-path:url(#SVGID_32_);fill:#E8CDA6;}
	.st101{clip-path:url(#SVGID_32_);fill:#E8CEA8;}
	.st102{clip-path:url(#SVGID_32_);}
	.st103{clip-path:url(#SVGID_38_);fill:#95BDC3;}
	.st104{clip-path:url(#SVGID_38_);fill:#E8CDA6;}
	.st105{clip-path:url(#SVGID_38_);fill:#E8CEA8;}
	.st106{clip-path:url(#SVGID_38_);}
	.st107{clip-path:url(#SVGID_44_);fill:#CF6041;}
	.st108{clip-path:url(#SVGID_44_);fill:#E8CDA6;}
	.st109{clip-path:url(#SVGID_44_);fill:#E8CEA8;}
	.st110{clip-path:url(#SVGID_44_);}
	.st111{fill:#E2C9AF;}
	.st112{fill:#EAD2B5;}
	.st113{clip-path:url(#SVGID_44_);fill:#2D3A49;}
	.st114{clip-path:url(#SVGID_50_);fill:#95BDC3;}
	.st115{clip-path:url(#SVGID_50_);fill:#E8CDA6;}
	.st116{clip-path:url(#SVGID_50_);fill:#E8CEA8;}
	.st117{clip-path:url(#SVGID_50_);}
	.st118{clip-path:url(#SVGID_56_);fill:#CF6041;}
	.st119{clip-path:url(#SVGID_56_);fill:#E8CDA6;}
	.st120{clip-path:url(#SVGID_56_);fill:#E8CEA8;}
	.st121{clip-path:url(#SVGID_56_);fill:#2D3A49;}
	.st122{clip-path:url(#SVGID_56_);}
	.st123{fill:#AF9268;}
	.st124{fill:#A58760;}
	.st125{fill:#ADACAC;}
	.st126{clip-path:url(#SVGID_62_);fill:#95BDC3;}
	.st127{clip-path:url(#SVGID_62_);fill:#E8CDA6;}
	.st128{clip-path:url(#SVGID_62_);fill:#E8CEA8;}
	.st129{clip-path:url(#SVGID_62_);}
	.st130{fill:#C6C6C6;}
	.st131{clip-path:url(#SVGID_68_);fill:#95BDC3;}
	.st132{clip-path:url(#SVGID_68_);fill:#E8CDA6;}
	.st133{clip-path:url(#SVGID_68_);fill:#E8CEA8;}
	.st134{clip-path:url(#SVGID_68_);}
	.st135{clip-path:url(#SVGID_74_);fill:#CF6041;}
	.st136{clip-path:url(#SVGID_74_);fill:#E8CDA6;}
	.st137{clip-path:url(#SVGID_74_);fill:#E8CEA8;}
	.st138{clip-path:url(#SVGID_74_);}
	.st139{fill:#967951;}
	.st140{fill:#7C5D3E;}
	.st141{fill:#6D3A21;}
	</style>
	<g>
		<defs>
			<path id="SVGID_15_" d="M167-7.8H12.8v154.4h0.5c-0.3,2.8-0.5,5.6-0.5,8.5c0,42.6,34.6,77.2,77.2,77.2s77.2-34.6,77.2-77.2
			c0-2.9-0.2-5.7-0.5-8.5h0.3V-7.8z"/>
		</defs>
		<clipPath id="SVGID_2_">
			<use xlink:href="#SVGID_15_" style="overflow:visible;"/>
		</clipPath>
		<path class="st3" d="M69.3,102c3.8-2.4,6-10.6,6-12.3h30.5c0,1.7-0.5,9,3.3,11.4l-18.6,20.8L69.3,102z"/>
		<path class="st6" d="M102.4,108.3l6.7-7.2c-3.8-2.4-3.3-9.7-3.3-11.4H75.3C77.4,96,91.9,106.8,102.4,108.3"/>
		<path class="st3" d="M125.5,267.6c4-137.1,19.3-161.8,9.3-165l-27.3-4.8c-8.1,6.2-7.5,7.6-17,7.6c-9.5,0-10-1.4-18.1-7.6l-26.1,4.8
		c-10.1,3.2,8.4,27.9,12.4,165H125.5z"/>
		<g style="clip-path:url(#SVGID_2_);">
			<defs>
				<path id="SVGID_17_" d="M125.5,268c4-137.1,19.3-161.8,9.3-165l-27.3-4.8c-8.1,6.2-7.5,7.6-17,7.6c-9.5,0-10-1.4-18.1-7.6
				L46.3,103c-10.1,3.2,8.4,27.9,12.4,165H125.5z"/>
			</defs>
			<clipPath id="SVGID_4_">
				<use xlink:href="#SVGID_17_" style="overflow:visible;"/>
			</clipPath>
			<g class="st12">
				<g>
					<rect x="28" y="237" class="st52" width="2" height="6"/>
				</g>
				<g>
					<rect x="42" y="237" class="st52" width="2" height="6"/>
				</g>
				<g>
					<rect x="56" y="237" class="st52" width="2" height="6"/>
				</g>
				<g>
					<rect x="70" y="237" class="st52" width="2" height="6"/>
				</g>
				<g>
					<rect x="84" y="237" class="st52" width="2" height="6"/>
				</g>
				<g>
					<rect x="98" y="237" class="st52" width="2" height="6"/>
				</g>
				<g>
					<rect x="112" y="237" class="st52" width="2" height="6"/>
				</g>
				<g>
					<rect x="126" y="237" class="st52" width="2" height="6"/>
				</g>
				<g>
					<rect x="140" y="237" class="st52" width="2" height="6"/>
				</g>
				<g>
					<rect x="154" y="237" class="st52" width="2" height="6"/>
				</g>
				<g>
					<rect x="28" y="222" class="st52" width="2" height="6"/>
					<rect x="28" y="222" transform="matrix(-1.836970e-16 1 -1 -1.836970e-16 254 196)" class="st52" width="2" height="6"/>
				</g>
				<g>
					<rect x="42" y="222" class="st52" width="2" height="6"/>
					<rect x="42" y="222" transform="matrix(-1.836970e-16 1 -1 -1.836970e-16 268 182)" class="st52" width="2" height="6"/>
				</g>
				<g>
					<rect x="56" y="222" class="st52" width="2" height="6"/>
					<rect x="56" y="222" transform="matrix(-1.836970e-16 1 -1 -1.836970e-16 282 168)" class="st52" width="2" height="6"/>
				</g>
				<g>
					<rect x="70" y="222" class="st52" width="2" height="6"/>
					<rect x="70" y="222" transform="matrix(-1.836970e-16 1 -1 -1.836970e-16 296 154)" class="st52" width="2" height="6"/>
				</g>
				<g>
					<rect x="84" y="222" class="st52" width="2" height="6"/>
					<rect x="84" y="222" transform="matrix(-1.836970e-16 1 -1 -1.836970e-16 310 140)" class="st52" width="2" height="6"/>
				</g>
				<g>
					<rect x="98" y="222" class="st52" width="2" height="6"/>
					<rect x="98" y="222" transform="matrix(-1.836970e-16 1 -1 -1.836970e-16 324 126)" class="st52" width="2" height="6"/>
				</g>
				<g>
					<rect x="112" y="222" class="st52" width="2" height="6"/>
					<rect x="112" y="222" transform="matrix(-1.836970e-16 1 -1 -1.836970e-16 338 112)" class="st52" width="2" height="6"/>
				</g>
				<g>
					<rect x="126" y="222" class="st52" width="2" height="6"/>
					<rect x="126" y="222" transform="matrix(-1.836970e-16 1 -1 -1.836970e-16 352 98)" class="st52" width="2" height="6"/>
				</g>
				<g>
					<rect x="140" y="222" class="st52" width="2" height="6"/>
					<rect x="140" y="222" transform="matrix(-1.836970e-16 1 -1 -1.836970e-16 366 84)" class="st52" width="2" height="6"/>
				</g>
				<g>
					<rect x="154" y="222" class="st52" width="2" height="6"/>
					<rect x="154" y="222" transform="matrix(-1.836970e-16 1 -1 -1.836970e-16 380 70)" class="st52" width="2" height="6"/>
				</g>
				<g>
					<rect x="28" y="207" class="st52" width="2" height="6"/>
					<rect x="28" y="207" transform="matrix(-1.836970e-16 1 -1 -1.836970e-16 239 181)" class="st52" width="2" height="6"/>
				</g>
				<g>
					<rect x="42" y="207" class="st52" width="2" height="6"/>
					<rect x="42" y="207" transform="matrix(-1.836970e-16 1 -1 -1.836970e-16 253 167)" class="st52" width="2" height="6"/>
				</g>
				<g>
					<rect x="56" y="207" class="st52" width="2" height="6"/>
					<rect x="56" y="207" transform="matrix(-1.836970e-16 1 -1 -1.836970e-16 267 153)" class="st52" width="2" height="6"/>
				</g>
				<g>
					<rect x="70" y="207" class="st52" width="2" height="6"/>
					<rect x="70" y="207" transform="matrix(-1.836970e-16 1 -1 -1.836970e-16 281 139)" class="st52" width="2" height="6"/>
				</g>
				<g>
					<rect x="84" y="207" class="st52" width="2" height="6"/>
					<rect x="84" y="207" transform="matrix(-1.836970e-16 1 -1 -1.836970e-16 295 125)" class="st52" width="2" height="6"/>
				</g>
				<g>
					<rect x="98" y="207" class="st52" width="2" height="6"/>
					<rect x="98" y="207" transform="matrix(-1.836970e-16 1 -1 -1.836970e-16 309 111)" class="st52" width="2" height="6"/>
				</g>
				<g>
					<rect x="112" y="207" class="st52" width="2" height="6"/>
					<rect x="112" y="207" transform="matrix(-1.836970e-16 1 -1 -1.836970e-16 323 97)" class="st52" width="2" height="6"/>
				</g>
				<g>
					<rect x="126" y="207" class="st52" width="2" height="6"/>
					<rect x="126" y="207" transform="matrix(-1.836970e-16 1 -1 -1.836970e-16 337 83)" class="st52" width="2" height="6"/>
				</g>
				<g>
					<rect x="140" y="207" class="st52" width="2" height="6"/>
					<rect x="140" y="207" transform="matrix(-1.836970e-16 1 -1 -1.836970e-16 351 69)" class="st52" width="2" height="6"/>
				</g>
				<g>
					<rect x="154" y="207" class="st52" width="2" height="6"/>
					<rect x="154" y="207" transform="matrix(-1.836970e-16 1 -1 -1.836970e-16 365 55)" class="st52" width="2" height="6"/>
				</g>
				<g>
					<rect x="28" y="192" class="st52" width="2" height="6"/>
					<rect x="28" y="192" transform="matrix(-1.836970e-16 1 -1 -1.836970e-16 224 166)" class="st52" width="2" height="6"/>
				</g>
				<g>
					<rect x="42" y="192" class="st52" width="2" height="6"/>
					<rect x="42" y="192" transform="matrix(-1.836970e-16 1 -1 -1.836970e-16 238 152)" class="st52" width="2" height="6"/>
				</g>
				<g>
					<rect x="56" y="192" class="st52" width="2" height="6"/>
					<rect x="56" y="192" transform="matrix(-1.836970e-16 1 -1 -1.836970e-16 252 138)" class="st52" width="2" height="6"/>
				</g>
				<g>
					<rect x="70" y="192" class="st52" width="2" height="6"/>
					<rect x="70" y="192" transform="matrix(-1.836970e-16 1 -1 -1.836970e-16 266 124)" class="st52" width="2" height="6"/>
				</g>
				<g>
					<rect x="84" y="192" class="st52" width="2" height="6"/>
					<rect x="84" y="192" transform="matrix(-1.836970e-16 1 -1 -1.836970e-16 280 110)" class="st52" width="2" height="6"/>
				</g>
				<g>
					<rect x="98" y="192" class="st52" width="2" height="6"/>
					<rect x="98" y="192" transform="matrix(-1.836970e-16 1 -1 -1.836970e-16 294 96)" class="st52" width="2" height="6"/>
				</g>
				<g>
					<rect x="112" y="192" class="st52" width="2" height="6"/>
					<rect x="112" y="192" transform="matrix(-1.836970e-16 1 -1 -1.836970e-16 308 82)" class="st52" width="2" height="6"/>
				</g>
				<g>
					<rect x="126" y="192" class="st52" width="2" height="6"/>
					<rect x="126" y="192" transform="matrix(-1.836970e-16 1 -1 -1.836970e-16 322 68)" class="st52" width="2" height="6"/>
				</g>
				<g>
					<rect x="140" y="192" class="st52" width="2" height="6"/>
					<rect x="140" y="192" transform="matrix(-1.836970e-16 1 -1 -1.836970e-16 336 54)" class="st52" width="2" height="6"/>
				</g>
				<g>
					<rect x="154" y="192" class="st52" width="2" height="6"/>
					<rect x="154" y="192" transform="matrix(-1.836970e-16 1 -1 -1.836970e-16 350 40)" class="st52" width="2" height="6"/>
				</g>
				<g>
					<rect x="28" y="177" class="st52" width="2" height="6"/>
					<rect x="28" y="177" transform="matrix(-1.836970e-16 1 -1 -1.836970e-16 209 151)" class="st52" width="2" height="6"/>
				</g>
				<g>
					<rect x="42" y="177" class="st52" width="2" height="6"/>
					<rect x="42" y="177" transform="matrix(-1.836970e-16 1 -1 -1.836970e-16 223 137)" class="st52" width="2" height="6"/>
				</g>
				<g>
					<rect x="56" y="177" class="st52" width="2" height="6"/>
					<rect x="56" y="177" transform="matrix(-1.836970e-16 1 -1 -1.836970e-16 237 123)" class="st52" width="2" height="6"/>
				</g>
				<g>
					<rect x="70" y="177" class="st52" width="2" height="6"/>
					<rect x="70" y="177" transform="matrix(-1.836970e-16 1 -1 -1.836970e-16 251 109)" class="st52" width="2" height="6"/>
				</g>
				<g>
					<rect x="84" y="177" class="st52" width="2" height="6"/>
					<rect x="84" y="177" transform="matrix(-1.836970e-16 1 -1 -1.836970e-16 265 95)" class="st52" width="2" height="6"/>
				</g>
				<g>
					<rect x="98" y="177" class="st52" width="2" height="6"/>
					<rect x="98" y="177" transform="matrix(-1.836970e-16 1 -1 -1.836970e-16 279 81)" class="st52" width="2" height="6"/>
				</g>
				<g>
					<rect x="112" y="177" class="st52" width="2" height="6"/>
					<rect x="112" y="177" transform="matrix(-1.836970e-16 1 -1 -1.836970e-16 293 67)" class="st52" width="2" height="6"/>
				</g>
				<g>
					<rect x="126" y="177" class="st52" width="2" height="6"/>
					<rect x="126" y="177" transform="matrix(-1.836970e-16 1 -1 -1.836970e-16 307 53)" class="st52" width="2" height="6"/>
				</g>
				<g>
					<rect x="140" y="177" class="st52" width="2" height="6"/>
					<rect x="140" y="177" transform="matrix(-1.836970e-16 1 -1 -1.836970e-16 321 39)" class="st52" width="2" height="6"/>
				</g>
				<g>
					<rect x="154" y="177" class="st52" width="2" height="6"/>
					<rect x="154" y="177" transform="matrix(-1.836970e-16 1 -1 -1.836970e-16 335 25)" class="st52" width="2" height="6"/>
				</g>
				<g>
					<rect x="28" y="162" class="st52" width="2" height="6"/>
					<rect x="28" y="162" transform="matrix(-1.836970e-16 1 -1 -1.836970e-16 194 136)" class="st52" width="2" height="6"/>
				</g>
				<g>
					<rect x="42" y="162" class="st52" width="2" height="6"/>
					<rect x="42" y="162" transform="matrix(-1.836970e-16 1 -1 -1.836970e-16 208 122)" class="st52" width="2" height="6"/>
				</g>
				<g>
					<rect x="56" y="162" class="st52" width="2" height="6"/>
					<rect x="56" y="162" transform="matrix(-1.836970e-16 1 -1 -1.836970e-16 222 108)" class="st52" width="2" height="6"/>
				</g>
				<g>
					<rect x="70" y="162" class="st52" width="2" height="6"/>
					<rect x="70" y="162" transform="matrix(-1.836970e-16 1 -1 -1.836970e-16 236 94)" class="st52" width="2" height="6"/>
				</g>
				<g>
					<rect x="84" y="162" class="st52" width="2" height="6"/>
					<rect x="84" y="162" transform="matrix(-1.836970e-16 1 -1 -1.836970e-16 250 80)" class="st52" width="2" height="6"/>
				</g>
				<g>
					<rect x="98" y="162" class="st52" width="2" height="6"/>
					<rect x="98" y="162" transform="matrix(-1.836970e-16 1 -1 -1.836970e-16 264 66)" class="st52" width="2" height="6"/>
				</g>
				<g>
					<rect x="112" y="162" class="st52" width="2" height="6"/>
					<rect x="112" y="162" transform="matrix(-1.836970e-16 1 -1 -1.836970e-16 278 52)" class="st52" width="2" height="6"/>
				</g>
				<g>
					<rect x="126" y="162" class="st52" width="2" height="6"/>
					<rect x="126" y="162" transform="matrix(-1.836970e-16 1 -1 -1.836970e-16 292 38)" class="st52" width="2" height="6"/>
				</g>
				<g>
					<rect x="140" y="162" class="st52" width="2" height="6"/>
					<rect x="140" y="162" transform="matrix(-1.836970e-16 1 -1 -1.836970e-16 306 24)" class="st52" width="2" height="6"/>
				</g>
				<g>
					<rect x="154" y="162" class="st52" width="2" height="6"/>
					<rect x="154" y="162" transform="matrix(-1.836970e-16 1 -1 -1.836970e-16 320 10)" class="st52" width="2" height="6"/>
				</g>
				<g>
					<rect x="28" y="147" class="st52" width="2" height="6"/>
					<rect x="28" y="147" transform="matrix(-1.836970e-16 1 -1 -1.836970e-16 179 121)" class="st52" width="2" height="6"/>
				</g>
				<g>
					<rect x="42" y="147" class="st52" width="2" height="6"/>
					<rect x="42" y="147" transform="matrix(-1.836970e-16 1 -1 -1.836970e-16 193 107)" class="st52" width="2" height="6"/>
				</g>
				<g>
					<rect x="56" y="147" class="st52" width="2" height="6"/>
					<rect x="56" y="147" transform="matrix(-1.836970e-16 1 -1 -1.836970e-16 207 93)" class="st52" width="2" height="6"/>
				</g>
				<g>
					<rect x="70" y="147" class="st52" width="2" height="6"/>
					<rect x="70" y="147" transform="matrix(-1.836970e-16 1 -1 -1.836970e-16 221 79)" class="st52" width="2" height="6"/>
				</g>
				<g>
					<rect x="84" y="147" class="st52" width="2" height="6"/>
					<rect x="84" y="147" transform="matrix(-1.836970e-16 1 -1 -1.836970e-16 235 65)" class="st52" width="2" height="6"/>
				</g>
				<g>
					<rect x="98" y="147" class="st52" width="2" height="6"/>
					<rect x="98" y="147" transform="matrix(-1.836970e-16 1 -1 -1.836970e-16 249 51)" class="st52" width="2" height="6"/>
				</g>
				<g>
					<rect x="112" y="147" class="st52" width="2" height="6"/>
					<rect x="112" y="147" transform="matrix(-1.836970e-16 1 -1 -1.836970e-16 263 37)" class="st52" width="2" height="6"/>
				</g>
				<g>
					<rect x="126" y="147" class="st52" width="2" height="6"/>
					<rect x="126" y="147" transform="matrix(-1.836970e-16 1 -1 -1.836970e-16 277 23)" class="st52" width="2" height="6"/>
				</g>
				<g>
					<rect x="140" y="147" class="st52" width="2" height="6"/>
					<rect x="140" y="147" transform="matrix(-1.836970e-16 1 -1 -1.836970e-16 291 9)" class="st52" width="2" height="6"/>
				</g>
				<g>
					<rect x="154" y="147" class="st52" width="2" height="6"/>
					<rect x="154" y="147" transform="matrix(-1.836970e-16 1 -1 -1.836970e-16 305 -5)" class="st52" width="2" height="6"/>
				</g>
				<g>
					<g>
						<rect x="28" y="132" class="st52" width="2" height="6"/>
						<rect x="28" y="132" transform="matrix(-1.836970e-16 1 -1 -1.836970e-16 164 106)" class="st52" width="2" height="6"/>
					</g>
					<g>
						<rect x="42" y="132" class="st52" width="2" height="6"/>
						<rect x="42" y="132" transform="matrix(-1.836970e-16 1 -1 -1.836970e-16 178 92)" class="st52" width="2" height="6"/>
					</g>
					<g>
						<rect x="56" y="132" class="st52" width="2" height="6"/>
						<rect x="56" y="132" transform="matrix(-1.836970e-16 1 -1 -1.836970e-16 192 78)" class="st52" width="2" height="6"/>
					</g>
					<g>
						<rect x="70" y="132" class="st52" width="2" height="6"/>
						<rect x="70" y="132" transform="matrix(-1.836970e-16 1 -1 -1.836970e-16 206 64)" class="st52" width="2" height="6"/>
					</g>
					<g>
						<rect x="84" y="132" class="st52" width="2" height="6"/>
						<rect x="84" y="132" transform="matrix(-1.836970e-16 1 -1 -1.836970e-16 220 50)" class="st52" width="2" height="6"/>
					</g>
					<g>
						<rect x="98" y="132" class="st52" width="2" height="6"/>
						<rect x="98" y="132" transform="matrix(-1.836970e-16 1 -1 -1.836970e-16 234 36)" class="st52" width="2" height="6"/>
					</g>
					<g>
						<rect x="112" y="132" class="st52" width="2" height="6"/>
						<rect x="112" y="132" transform="matrix(-1.836970e-16 1 -1 -1.836970e-16 248 22)" class="st52" width="2" height="6"/>
					</g>
					<g>
						<rect x="126" y="132" class="st52" width="2" height="6"/>
						<rect x="126" y="132" transform="matrix(-1.836970e-16 1 -1 -1.836970e-16 262 8)" class="st52" width="2" height="6"/>
					</g>
					<g>
						<rect x="140" y="132" class="st52" width="2" height="6"/>
						<rect x="140" y="132" transform="matrix(-1.836970e-16 1 -1 -1.836970e-16 276 -6)" class="st52" width="2" height="6"/>
					</g>
					<g>
						<rect x="154" y="132" class="st52" width="2" height="6"/>
						<rect x="154" y="132" transform="matrix(-1.836970e-16 1 -1 -1.836970e-16 290 -20)" class="st52" width="2" height="6"/>
					</g>
				</g>
				<g>
					<g>
						<rect x="28" y="117" class="st52" width="2" height="6"/>
						<rect x="28" y="117" transform="matrix(-1.836970e-16 1 -1 -1.836970e-16 149 91)" class="st52" width="2" height="6"/>
					</g>
					<g>
						<rect x="42" y="117" class="st52" width="2" height="6"/>
						<rect x="42" y="117" transform="matrix(-1.836970e-16 1 -1 -1.836970e-16 163 77)" class="st52" width="2" height="6"/>
					</g>
					<g>
						<rect x="56" y="117" class="st52" width="2" height="6"/>
						<rect x="56" y="117" transform="matrix(-1.836970e-16 1 -1 -1.836970e-16 177 63)" class="st52" width="2" height="6"/>
					</g>
					<g>
						<rect x="70" y="117" class="st52" width="2" height="6"/>
						<rect x="70" y="117" transform="matrix(-1.836970e-16 1 -1 -1.836970e-16 191 49)" class="st52" width="2" height="6"/>
					</g>
					<g>
						<rect x="84" y="117" class="st52" width="2" height="6"/>
						<rect x="84" y="117" transform="matrix(-1.836970e-16 1 -1 -1.836970e-16 205 35)" class="st52" width="2" height="6"/>
					</g>
					<g>
						<rect x="98" y="117" class="st52" width="2" height="6"/>
						<rect x="98" y="117" transform="matrix(-1.836970e-16 1 -1 -1.836970e-16 219 21)" class="st52" width="2" height="6"/>
					</g>
					<g>
						<rect x="112" y="117" class="st52" width="2" height="6"/>
						<rect x="112" y="117" transform="matrix(-1.836970e-16 1 -1 -1.836970e-16 233 7)" class="st52" width="2" height="6"/>
					</g>
					<g>
						<rect x="126" y="117" class="st52" width="2" height="6"/>
						<rect x="126" y="117" transform="matrix(-1.836970e-16 1 -1 -1.836970e-16 247 -7)" class="st52" width="2" height="6"/>
					</g>
					<g>
						<rect x="140" y="117" class="st52" width="2" height="6"/>
						<rect x="140" y="117" transform="matrix(-1.836970e-16 1 -1 -1.836970e-16 261 -21)" class="st52" width="2" height="6"/>
					</g>
					<g>
						<rect x="154" y="117" class="st52" width="2" height="6"/>
						<rect x="154" y="117" transform="matrix(-1.836970e-16 1 -1 -1.836970e-16 275 -35)" class="st52" width="2" height="6"/>
					</g>
				</g>
				<g>
					<g>
						<rect x="28" y="102" class="st52" width="2" height="6"/>
						<rect x="28" y="102" transform="matrix(-1.836970e-16 1 -1 -1.836970e-16 134 76)" class="st52" width="2" height="6"/>
					</g>
					<g>
						<rect x="42" y="102" class="st52" width="2" height="6"/>
					</g>
					<g>
						<rect x="56" y="102" class="st52" width="2" height="6"/>
						<rect x="56" y="102" transform="matrix(-1.836970e-16 1 -1 -1.836970e-16 162 48)" class="st52" width="2" height="6"/>
					</g>
					<g>
						<rect x="84" y="102" class="st52" width="2" height="6"/>
						<rect x="84" y="102" transform="matrix(-1.836970e-16 1 -1 -1.836970e-16 190 20)" class="st52" width="2" height="6"/>
					</g>
					<g>
						<rect x="98" y="102" class="st52" width="2" height="6"/>
						<rect x="98" y="102" transform="matrix(-1.836970e-16 1 -1 -1.836970e-16 204 6)" class="st52" width="2" height="6"/>
					</g>
					<g>
						<rect x="112" y="102" class="st52" width="2" height="6"/>
						<rect x="112" y="102" transform="matrix(-1.836970e-16 1 -1 -1.836970e-16 218 -8)" class="st52" width="2" height="6"/>
					</g>
					<g>
						<rect x="126" y="102" class="st52" width="2" height="6"/>
						<rect x="126" y="102" transform="matrix(-1.836970e-16 1 -1 -1.836970e-16 232 -22)" class="st52" width="2" height="6"/>
					</g>
					<g>
						<rect x="140" y="102" class="st52" width="2" height="6"/>
						<rect x="140" y="102" transform="matrix(-1.836970e-16 1 -1 -1.836970e-16 246 -36)" class="st52" width="2" height="6"/>
					</g>
					<g>
						<rect x="154" y="102" class="st52" width="2" height="6"/>
						<rect x="154" y="102" transform="matrix(-1.836970e-16 1 -1 -1.836970e-16 260 -50)" class="st52" width="2" height="6"/>
					</g>
				</g>
			</g>
		</g>
		<path class="st6" d="M72,85l-4,17c0,0,1.4,4,7.7,7s16.3,2,23.3,0s13-8.5,13-10.2c0-1.8-7-15.8-7-15.8L72,85z"/>
		<path style="clip-path:url(#SVGID_2_);fill:#F4E0C6;" d="M64.1,64.8c0,0,3.9,13.6,6.3,19.4c2.5,5.8,12,14.5,14.9,14.5
		c2.9,0,14.2-2.5,14.2-2.5s9.1-5,11.2-11.2c2.1-6.2,6.8-29.7,6.8-29.7l-1.4-15.9l-26.2-4.2l-25,5L64.1,64.8z"/>
		<path style="clip-path:url(#SVGID_2_);fill:#EAD2B5;" d="M85.3,98.7c0,0,18.9,1.1,25.3-13.6c2.6-6,6.8-29.7,6.8-29.7l-1.4-15.9
		l-39.6-4.2"/>
		<path class="st5" d="M137.7,106.3l-4.2,44.4l13.8,39.2l4.5,75.4c0,0,0.3,5.1,4.5,4.2l4.2-0.9v-3.3c0,0-0.4-81,0-82
		C160.9,182.2,137.7,106.3,137.7,106.3"/>
		<polygon style="opacity:0.19;clip-path:url(#SVGID_2_);fill:#70747C;" points="133,155.6 119.3,179.8 115.8,225.3 86.8,268.6 
		125.2,268.6 127.6,218.8 130.3,186.7 	"/>
		<path style="clip-path:url(#SVGID_2_);fill:#A0835D;" d="M64.5,57.4c-0.2,0.8-4.2-9.4,0-13.3c0,0-2.8-15,0-20.5
		c0,0,3.6,3.9,4.7,3.1l1.4-11.7l8.9,6.1l23.6,2.5l7.8,8.3l2.8-1.9l8,12.5l-4.2,15l-2.5,9.9l-3.1-1.5l2.3-16.4l-6.4,0.6
		c0,0,1.9-5.8,0.3-6.9c-1.7-1.1-9.1,1.7-14.1,3.9c-5,2.2-13,6.1-17.7,3C71.5,46.8,67.3,46,64.5,57.4"/>
		<path class="st5" d="M50.5,151.6l-15.6,38.3l-4.6,75.4c0,0-0.3,5.1-4.5,4.2l-4.2-0.9v-3.3c0,0,0.4-81,0-82
		C21.2,182.2,44,104,44,104"/>
	</g>
	<polygon class="st87" points="74,91 80.5,96.6 85.3,100.5 93,100 102,95 94,82 89,79 82,79 80,82 "/>
	<path class="st88" d="M81.8,86l0.2,1l2,1h6l2-2l-0.9-2l-7-0.7C82.6,83.2,81.4,84.5,81.8,86z"/>
</svg>
