<?xml version="1.0" encoding="utf-8"?>
<!-- Generator: Adobe Illustrator 21.0.0, SVG Export Plug-In . SVG Version: 6.00 Build 0)  -->
<svg version="1.1" id="Capa_1" 
	xmlns="http://www.w3.org/2000/svg" 
	xmlns:xlink="http://www.w3.org/1999/xlink" x="0px" y="0px" viewBox="0 0 180 239" style="enable-background:new 0 0 180 239;" xml:space="preserve">
	<style type="text/css">
	.st0{clip-path:url(#SVGID_2_);fill:#CF6041;}
	.st1{clip-path:url(#SVGID_2_);fill:#EDCB97;}
	.st2{clip-path:url(#SVGID_2_);fill:#E8BB84;}
	.st3{clip-path:url(#SVGID_2_);fill:#767A80;}
	.st4{clip-path:url(#SVGID_2_);fill:#E8CDA6;}
	.st5{clip-path:url(#SVGID_2_);fill:#C3C3C3;}
	.st6{clip-path:url(#SVGID_2_);fill:#70747C;}
	.st7{clip-path:url(#SVGID_2_);fill:#2D3A49;}
	.st8{fill:none;stroke:#504F4B;stroke-width:2;stroke-linecap:round;stroke-linejoin:round;stroke-miterlimit:10;}
	.st9{clip-path:url(#SVGID_4_);fill:#CF6041;}
	.st10{clip-path:url(#SVGID_4_);fill:#E8CDA6;}
	.st11{clip-path:url(#SVGID_4_);fill:#E8CEA8;}
	.st12{clip-path:url(#SVGID_4_);}
	.st13{fill:#ECD1AA;}
	.st14{fill:#26323E;}
	.st15{fill:#ECCB9A;}
	.st16{fill:#4C6970;}
	.st17{fill:#F2F2F1;}
	.st18{fill:#E5BB86;}
	.st19{fill:#E8CEA8;}
	.st20{fill:#2C3A48;}
	.st21{opacity:0.1;fill:#2D3A49;}
	.st22{fill:#303B4A;}
	.st23{fill:#2D3A49;}
	.st24{fill:#E1E1DF;}
	.st25{clip-path:url(#SVGID_10_);fill:#95BDC3;}
	.st26{clip-path:url(#SVGID_10_);fill:#F4E0C6;}
	.st27{clip-path:url(#SVGID_10_);fill:#E2C9AF;}
	.st28{clip-path:url(#SVGID_10_);fill:#AA4444;}
	.st29{clip-path:url(#SVGID_10_);fill:#EAD2B5;}
	.st30{clip-path:url(#SVGID_10_);fill:#A04242;}
	.st31{clip-path:url(#SVGID_10_);fill:#DDB237;}
	.st32{clip-path:url(#SVGID_10_);fill:#E8CDA6;}
	.st33{clip-path:url(#SVGID_12_);fill:#CF6041;}
	.st34{clip-path:url(#SVGID_12_);fill:#C4A578;}
	.st35{clip-path:url(#SVGID_12_);fill:#A58760;}
	.st37{clip-path:url(#SVGID_12_);}
	.st38{clip-path:url(#SVGID_14_);}
	.st39{fill:#95BDC3;}
	.st40{fill:#E7F6F7;}
	.st41{fill:#CAEBEF;}
	.st42{clip-path:url(#SVGID_12_);fill:#AF9268;}
	.st43{clip-path:url(#SVGID_12_);fill:#C3C3C3;}
	.st44{opacity:0.42;clip-path:url(#SVGID_12_);fill:#8AB8BC;}
	.st45{clip-path:url(#SVGID_12_);fill:#2D3A49;}
	.st46{clip-path:url(#SVGID_12_);fill:#E8CDA6;}
	.st47{clip-path:url(#SVGID_16_);fill:#95BDC3;}
	.st48{clip-path:url(#SVGID_16_);fill:#767A80;}
	.st49{clip-path:url(#SVGID_16_);fill:#70747C;}
	.st50{clip-path:url(#SVGID_16_);}
	.st51{clip-path:url(#SVGID_18_);}
	.st52{fill:#504F4B;}
	.st53{clip-path:url(#SVGID_16_);fill:#F4E0C6;}
	.st54{clip-path:url(#SVGID_16_);fill:#EAD2B5;}
	.st55{clip-path:url(#SVGID_16_);fill:#C3C3C3;}
	.st56{opacity:0.19;clip-path:url(#SVGID_16_);fill:#70747C;}
	.st57{clip-path:url(#SVGID_16_);fill:#A0835D;}
	.st58{clip-path:url(#SVGID_16_);fill:#E8CDA6;}
	.st59{clip-path:url(#SVGID_20_);fill:#95BDC3;}
	.st60{clip-path:url(#SVGID_20_);fill:#EDCB97;}
	.st61{clip-path:url(#SVGID_20_);fill:#E8BB84;}
	.st62{clip-path:url(#SVGID_20_);fill:#504F4B;}
	.st63{clip-path:url(#SVGID_20_);fill:#E8CDA6;}
	.st64{clip-path:url(#SVGID_20_);fill:#4C4B48;}
	.st65{clip-path:url(#SVGID_20_);fill:#C6C6C6;}
	.st66{fill:#DDB237;}
	.st67{fill:#D3A42F;}
	.st68{clip-path:url(#SVGID_22_);fill:#CF6041;}
	.st69{clip-path:url(#SVGID_22_);fill:#A58760;}
	.st70{clip-path:url(#SVGID_22_);fill:#997A56;}
	.st71{clip-path:url(#SVGID_22_);fill:#FFF3E1;}
	.st72{clip-path:url(#SVGID_22_);fill:#AF9268;}
	.st73{clip-path:url(#SVGID_22_);fill:#C3C3C3;}
	.st74{clip-path:url(#SVGID_22_);fill:#F7E8D5;}
	.st75{clip-path:url(#SVGID_22_);fill:#2D3A49;}
	.st76{clip-path:url(#SVGID_22_);fill:#E8CDA6;}
	.st77{fill:#FCFCFC;}
	.st78{clip-path:url(#SVGID_24_);fill:#CF6041;}
	.st79{clip-path:url(#SVGID_24_);fill:#846645;}
	.st80{clip-path:url(#SVGID_24_);fill:#7C5D3E;}
	.st81{clip-path:url(#SVGID_24_);fill:#FFFFFF;}
	.st82{clip-path:url(#SVGID_24_);fill:#967951;}
	.st83{clip-path:url(#SVGID_24_);fill:#C6C6C6;}
	.st84{clip-path:url(#SVGID_24_);fill:#C3C3C3;}
	.st85{clip-path:url(#SVGID_24_);fill:#F7F7F7;}
	.st86{clip-path:url(#SVGID_24_);fill:#E8CDA6;}
	.st87{fill:#A0835D;}
	.st88{fill:#F4E0C6;}
	.st89{fill:#846645;}
	.st90{fill:#F4E9DF;fill-opacity:0.46;stroke:#2D3A49;stroke-linecap:round;stroke-linejoin:round;stroke-miterlimit:10;}
	.st91{fill:#F7F7F7;}
	.st92{clip-path:url(#SVGID_26_);fill:#95BDC3;}
	.st93{clip-path:url(#SVGID_26_);fill:#E8CDA6;}
	.st94{clip-path:url(#SVGID_26_);fill:#E8CEA8;}
	.st95{clip-path:url(#SVGID_26_);}
	.st96{fill:#1F2A33;}
	.st97{fill:#AA4444;}
	.st98{fill:#A04242;}
	.st99{clip-path:url(#SVGID_32_);fill:#95BDC3;}
	.st100{clip-path:url(#SVGID_32_);fill:#E8CDA6;}
	.st101{clip-path:url(#SVGID_32_);fill:#E8CEA8;}
	.st102{clip-path:url(#SVGID_32_);}
	.st103{clip-path:url(#SVGID_38_);fill:#95BDC3;}
	.st104{clip-path:url(#SVGID_38_);fill:#E8CDA6;}
	.st105{clip-path:url(#SVGID_38_);fill:#E8CEA8;}
	.st106{clip-path:url(#SVGID_38_);}
	.st107{clip-path:url(#SVGID_44_);fill:#CF6041;}
	.st108{clip-path:url(#SVGID_44_);fill:#E8CDA6;}
	.st109{clip-path:url(#SVGID_44_);fill:#E8CEA8;}
	.st110{clip-path:url(#SVGID_44_);}
	.st111{fill:#E2C9AF;}
	.st112{fill:#EAD2B5;}
	.st113{clip-path:url(#SVGID_44_);fill:#2D3A49;}
	.st114{clip-path:url(#SVGID_50_);fill:#95BDC3;}
	.st115{clip-path:url(#SVGID_50_);fill:#E8CDA6;}
	.st116{clip-path:url(#SVGID_50_);fill:#E8CEA8;}
	.st117{clip-path:url(#SVGID_50_);}
	.st118{clip-path:url(#SVGID_56_);fill:#CF6041;}
	.st119{clip-path:url(#SVGID_56_);fill:#E8CDA6;}
	.st120{clip-path:url(#SVGID_56_);fill:#E8CEA8;}
	.st121{clip-path:url(#SVGID_56_);fill:#2D3A49;}
	.st122{clip-path:url(#SVGID_56_);}
	.st123{fill:#AF9268;}
	.st124{fill:#A58760;}
	.st125{fill:#ADACAC;}
	.st126{clip-path:url(#SVGID_62_);fill:#95BDC3;}
	.st127{clip-path:url(#SVGID_62_);fill:#E8CDA6;}
	.st128{clip-path:url(#SVGID_62_);fill:#E8CEA8;}
	.st129{clip-path:url(#SVGID_62_);}
	.st130{fill:#C6C6C6;}
	.st131{clip-path:url(#SVGID_68_);fill:#95BDC3;}
	.st132{clip-path:url(#SVGID_68_);fill:#E8CDA6;}
	.st133{clip-path:url(#SVGID_68_);fill:#E8CEA8;}
	.st134{clip-path:url(#SVGID_68_);}
	.st135{clip-path:url(#SVGID_74_);fill:#CF6041;}
	.st136{clip-path:url(#SVGID_74_);fill:#E8CDA6;}
	.st137{clip-path:url(#SVGID_74_);fill:#E8CEA8;}
	.st138{clip-path:url(#SVGID_74_);}
	.st139{fill:#967951;}
	.st140{fill:#7C5D3E;}
	.st141{fill:#6D3A21;}
	</style>
	<g>
		<defs>
			<path id="SVGID_3_" d="M-32.8-7.8h-154.4v154.4h0.5c-0.3,2.8-0.5,5.6-0.5,8.5c0,42.6,34.6,77.2,77.2,77.2s77.2-34.6,77.2-77.2
			c0-2.9-0.2-5.7-0.5-8.5h0.5V-7.8z"/>
		</defs>
		<clipPath id="SVGID_2_">
			<use xlink:href="#SVGID_3_" style="overflow:visible;"/>
		</clipPath>
		<path style="clip-path:url(#SVGID_2_);fill:#E8CEA8;" d="M14,195.1l6.7,1.1L23,206c0,0-6.3,9.8-6.7,9.5c-0.5-0.3-4-2-4-2l3.8-10.2
		l-0.9-0.9c0,0-1.4,2.3-2.9,2.3c-1.5,0-1.5-0.8-1.5-0.8L14,195.1z"/>
	</g>
	<g>
		<defs>
			<path id="SVGID_9_" d="M167.2-287.8H12.8v154.4h0.5c-0.3,2.8-0.5,5.6-0.5,8.5c0,42.6,34.6,77.2,77.2,77.2s77.2-34.6,77.2-77.2
			c0-2.9-0.2-5.7-0.5-8.5h0.5V-287.8z"/>
		</defs>
		<clipPath id="SVGID_4_">
			<use xlink:href="#SVGID_9_" style="overflow:visible;"/>
		</clipPath>
		<path class="st10" d="M30.3-14.1l-10.1,1.6L16.7,2.3c0,0,9.4,14.7,10.1,14.3c0.7-0.5,6-3,6-3L27.1-1.9l1.4-1.4c0,0,2.1,3.4,4.4,3.4
		c2.3,0,2.3-1.1,2.3-1.1L30.3-14.1z"/>
		<path class="st10" d="M151.8-14.1l10.1,1.6l3.5,14.7c0,0-9.4,14.7-10.1,14.3c-0.7-0.5-6-3-6-3l5.8-15.4l-1.4-1.4
		c0,0-2.1,3.4-4.4,3.4c-2.3,0-2.3-1.1-2.3-1.1L151.8-14.1z"/>
	</g>
	<g>
		<defs>
			<path id="SVGID_25_" d="M167.2-7.8H12.8v154.4h0.5c-0.3,2.8-0.5,5.6-0.5,8.5c0,42.6,34.6,77.2,77.2,77.2s77.2-34.6,77.2-77.2
			c0-2.9-0.2-5.7-0.5-8.5h0.5V-7.8z"/>
		</defs>
		<clipPath id="SVGID_6_">
			<use xlink:href="#SVGID_25_" style="overflow:visible;"/>
		</clipPath>
		<g style="clip-path:url(#SVGID_6_);">
			<path class="st13" d="M114.5,236l-7.5,1.2l-2.5,10.8c0,0,6.9,10.8,7.5,10.5c0.5-0.3,4.4-2.2,4.4-2.2l-4.2-11.4l1-1
			c0,0,1.5,2.5,3.2,2.5c1.7,0,1.7-0.8,1.7-0.8L114.5,236z"/>
			<path class="st96" d="M81.8,111.5c-2.3,0.6-4.1,9.5-4.1,9.5c-1.8-6.8-1.4-9.4-1.4-9.4c-1.9,11.8-9.5,9.2-9.5,9.2
			c2.4-2.2,0-5.8,0-5.8c-3.8,3.1-7.3-1.2-7.3-1.2c5.1-0.9,2.8-21,3.5-25.9C65.7,67,64,55.9,67.4,43.9C69,38.2,73.5,25,89.7,25
			c16.2,0,21.2,10.5,24.1,19.2c2.9,8.7,4.2,45.8,3.7,53.2c-0.5,7.4,1.3,15.1,4.4,16c0,0-7.2,3.3-10.3-6.2c0,0-1.8,5.3-0.3,8
			c0,0-6.4,0-5.4-10.7c0,0-4.4,2.1-3.9,8.9c0,0-4.1-1.8-4.4-8.9"/>
			<path class="st15" d="M75.3,104.8C78.5,102.7,83,87,83,85.6h16.3c0,1.4,4.4,17.1,7.6,19.2l-15.8,17.6L75.3,104.8z"/>
			<path class="st16" d="M101.2,110.9l5.7-6.1c-3.2-2.1-7.6-17.8-7.6-19.2H83C84.8,90.9,92.3,109.6,101.2,110.9"/>
			<path class="st97" d="M121.3,233.1c0.5-17.3-7.9-33.3-7.9-33.3l4.4-28.3l5.7-14.7c0,0,9.5-46.7,5.7-47.9l-22.3-4.7
			c-6.9,5.3-7.2,13.1-15.3,13.1c-8.1,0-7.9-8-14.8-13.3L54,108.9c-3.9,1.3,5.8,49.7,5.8,49.7l6.5,14.9l3.9,26.9
			c0,0-6.1,17.3-5.6,32.7H121.3z"/>
			<g>
				<defs>
					<rect id="SVGID_27_" x="68.8" y="236.8" width="52.8" height="211.4"/>
				</defs>
				<clipPath id="SVGID_8_">
					<use xlink:href="#SVGID_27_" style="overflow:visible;"/>
				</clipPath>
			</g>
			<path class="st15" d="M75.3,104.8C78.5,102.7,83,87,83,85.6h16.3c0,1.4,4.4,17.1,7.6,19.2c0,0-9.8,19.8-15.8,19.8
			C85.2,124.6,75.3,104.8,75.3,104.8z"/>
			<path class="st18" d="M101.9,113.6c1.7-2.3,5-8.9,5-8.9c-3.2-1.5-7.6-17.8-7.6-19.2H83C84.8,90.9,93,112.3,101.9,113.6"/>
			<g>
				<defs>
					<rect id="SVGID_29_" x="68.8" y="236.8" width="52.8" height="211.4"/>
				</defs>
				<clipPath id="SVGID_10_">
					<use xlink:href="#SVGID_29_" style="overflow:visible;"/>
				</clipPath>
			</g>
			<path class="st98" d="M54,109.5l2,28.1l-11.7,42.8l-3.9,64c0,0-0.3,4.3-3.9,3.6l-3.6-0.7v-2.8c0,0,0.3-68.8,0-69.7
			c-0.3-0.9,19.4-65.4,19.4-65.4"/>
			<path class="st19" d="M69.8,68c0.8,4.4,3,12.3,5.4,17c0.8,1.5,9,10.9,11,12.4C88.2,99,96.5,98,96.5,98s8.7-8.7,10.5-13.9
			c1.8-5.3,6.4-23.5,6.4-23.5l-1.2-13.5L90,43.5l-21.2,4.2C68.8,47.8,68.8,62.9,69.8,68z"/>
			<path class="st18" d="M86.2,97.4C88.2,99,96.5,98,96.5,98s8.7-8.7,10.5-13.9c1.8-5.3,6.4-23.5,6.4-23.5l-1.2-13.5L90,43.5"/>
			<path class="st98" d="M129.2,109.5l-2.3,29.8l13,41.1l3.9,64c0,0,0.3,4.3,3.9,3.6l3.6-0.7v-2.8c0,0-0.3-68.8,0-69.7
			C151.4,173.8,129.2,109.5,129.2,109.5"/>
			<polygon class="st21" points="101.9,113.6 118.6,119.5 123.5,127.3 126.9,137.5 128.5,118.2 129.2,109.6 106.9,104.8 		"/>
			<path class="st21" d="M123.5,157.4l-6.6,6.4l-8.1,1l2.2,5.5l-5.5,31.3l-5.7,10.6l1.8,21.1h19.8c-0.2-19.5-7.9-33.1-7.9-33.1
			l4.6-28.7L123.5,157.4z"/>
			<polyline class="st22" points="53.1,371.9 62.9,236.8 121.6,236.8 135.2,372.2 		"/>
			<path class="st14" d="M106,43c0,0-30,27-41,24c0,0-2-27,8-34C79.8,28.3,106,43,106,43z"/>
			<path class="st14" d="M91,42c0,0,7,15,23,13l-1-10l-22-4V42z"/>
			<path class="st14" d="M67.4,43.9C69,38.2,73.5,25,89.7,25c16.2,0,21.2,10.5,24.1,19.2l1.8,10.5l-13.7-1.6"/>
		</g>
	</g>
	<g>
		<defs>
			<path id="SVGID_31_" d="M167.2-7.8H12.8v154.4h0.5c-0.3,2.8-0.5,5.6-0.5,8.5c0,42.6,34.6,77.2,77.2,77.2s77.2-34.6,77.2-77.2
			c0-2.9-0.2-5.7-0.5-8.5h0.5V-7.8z"/>
		</defs>
		<clipPath id="SVGID_12_">
			<use xlink:href="#SVGID_31_" style="overflow:visible;"/>
		</clipPath>
		<g class="st37">
			<path class="st13" d="M114.5,236l-7.5,1.2l-2.5,10.8c0,0,6.9,10.8,7.5,10.5c0.5-0.3,4.4-2.2,4.4-2.2l-4.2-11.4l1-1
			c0,0,1.5,2.5,3.2,2.5c1.7,0,1.7-0.8,1.7-0.8L114.5,236z"/>
			<path class="st96" d="M81.8,111.5c-2.3,0.6-4.1,9.5-4.1,9.5c-1.8-6.8-1.4-9.4-1.4-9.4c-1.9,11.8-9.5,9.2-9.5,9.2
			c2.4-2.2,0-5.8,0-5.8c-3.8,3.1-7.3-1.2-7.3-1.2c5.1-0.9,2.8-21,3.5-25.9C65.7,67,64,55.9,67.4,43.9C69,38.2,73.5,25,89.7,25
			c16.2,0,21.2,10.5,24.1,19.2c2.9,8.7,4.2,45.8,3.7,53.2c-0.5,7.4,1.3,15.1,4.4,16c0,0-7.2,3.3-10.3-6.2c0,0-1.8,5.3-0.3,8
			c0,0-6.4,0-5.4-10.7c0,0-4.4,2.1-3.9,8.9c0,0-4.1-1.8-4.4-8.9"/>
			<path class="st15" d="M75.3,104.8C78.5,102.7,83,87,83,85.6h16.3c0,1.4,4.4,17.1,7.6,19.2l-15.8,17.6L75.3,104.8z"/>
			<path class="st16" d="M101.2,110.9l5.7-6.1c-3.2-2.1-7.6-17.8-7.6-19.2H83C84.8,90.9,92.3,109.6,101.2,110.9"/>
			<path class="st97" d="M121.3,233.1c0.5-17.3-7.9-33.3-7.9-33.3l4.4-28.3l5.7-14.7c0,0,9.5-46.7,5.7-47.9l-22.3-4.7
			c-6.9,5.3-7.2,13.1-15.3,13.1c-8.1,0-7.9-8-14.8-13.3L54,108.9c-3.9,1.3,5.8,49.7,5.8,49.7l6.5,14.9l3.9,26.9
			c0,0-6.1,17.3-5.6,32.7H121.3z"/>
			<g>
				<defs>
					<rect id="SVGID_33_" x="68.8" y="236.8" width="52.8" height="211.4"/>
				</defs>
				<clipPath id="SVGID_14_">
					<use xlink:href="#SVGID_33_" style="overflow:visible;"/>
				</clipPath>
			</g>
			<path class="st15" d="M75.3,104.8C78.5,102.7,83,87,83,85.6h16.3c0,1.4,4.4,17.1,7.6,19.2c0,0-9.8,19.8-15.8,19.8
			C85.2,124.6,75.3,104.8,75.3,104.8z"/>
			<path class="st18" d="M101.9,113.6c1.7-2.3,5-8.9,5-8.9c-3.2-1.5-7.6-17.8-7.6-19.2H83C84.8,90.9,93,112.3,101.9,113.6"/>
			<g>
				<defs>
					<rect id="SVGID_35_" x="68.8" y="236.8" width="52.8" height="211.4"/>
				</defs>
				<clipPath id="SVGID_16_">
					<use xlink:href="#SVGID_35_" style="overflow:visible;"/>
				</clipPath>
			</g>
			<path class="st98" d="M54,109.5l2,28.1l-11.7,42.8l-3.9,64c0,0-0.3,4.3-3.9,3.6l-3.6-0.7v-2.8c0,0,0.3-68.8,0-69.7
			c-0.3-0.9,19.4-65.4,19.4-65.4"/>
			<path class="st19" d="M69.8,68c0.8,4.4,3,12.3,5.4,17c0.8,1.5,9,10.9,11,12.4C88.2,99,96.5,98,96.5,98s8.7-8.7,10.5-13.9
			c1.8-5.3,6.4-23.5,6.4-23.5l-1.2-13.5L90,43.5l-21.2,4.2C68.8,47.8,68.8,62.9,69.8,68z"/>
			<path class="st18" d="M86.2,97.4C88.2,99,96.5,98,96.5,98s8.7-8.7,10.5-13.9c1.8-5.3,6.4-23.5,6.4-23.5l-1.2-13.5L90,43.5"/>
			<path class="st98" d="M129.2,109.5l-2.3,29.8l13,41.1l3.9,64c0,0,0.3,4.3,3.9,3.6l3.6-0.7v-2.8c0,0-0.3-68.8,0-69.7
			C151.4,173.8,129.2,109.5,129.2,109.5"/>
			<polygon class="st21" points="101.9,113.6 118.6,119.5 123.5,127.3 126.9,137.5 128.5,118.2 129.2,109.6 106.9,104.8 		"/>
			<path class="st21" d="M123.5,157.4l-6.6,6.4l-8.1,1l2.2,5.5l-5.5,31.3l-5.7,10.6l1.8,21.1h19.8c-0.2-19.5-7.9-33.1-7.9-33.1
			l4.6-28.7L123.5,157.4z"/>
			<polyline class="st22" points="53.1,371.9 62.9,236.8 121.6,236.8 135.2,372.2 		"/>
			<path class="st14" d="M106,43c0,0-30,27-41,24c0,0-2-27,8-34C79.8,28.3,106,43,106,43z"/>
			<path class="st14" d="M91,42c0,0,7,15,23,13l-1-10l-22-4V42z"/>
			<path class="st14" d="M67.4,43.9C69,38.2,73.5,25,89.7,25c16.2,0,21.2,10.5,24.1,19.2l1.8,10.5l-13.7-1.6"/>
		</g>
	</g>
</svg>
