<?xml version="1.0" encoding="utf-8"?>
<!-- Generator: Adobe Illustrator 22.1.0, SVG Export Plug-In . SVG Version: 6.00 Build 0)  -->
<svg version="1.1" id="Capa_1" 
	xmlns="http://www.w3.org/2000/svg" 
	xmlns:xlink="http://www.w3.org/1999/xlink" x="0px" y="0px" viewBox="0 0 180 239" style="enable-background:new 0 0 180 239;" xml:space="preserve">
	<style type="text/css">
	.st1{clip-path:url(#SVGID_4_);fill:#EDCB97;}
	.st2{clip-path:url(#SVGID_6_);fill:#E8BB84;}
	.st3{clip-path:url(#SVGID_8_);fill:#C3C3C3;}
	.st4{clip-path:url(#SVGID_10_);fill:#E8CDA6;}
	.st5{clip-path:url(#SVGID_12_);fill:#E8CDA6;}
	.st6{clip-path:url(#SVGID_12_);fill:#E8BB84;}
	.st7{clip-path:url(#SVGID_14_);fill:#2D3A49;}
	.st8{clip-path:url(#SVGID_16_);fill:#A5A4A4;}
	.st9{clip-path:url(#SVGID_20_);fill:#2D3A49;}
	.st10{fill:#9E6946;}
	.st11{fill:#82543A;}
	</style>
	<g>
		<g>
			<defs>
				<path id="SVGID_3_" d="M167.2-7.8H12.8v154.4h0.5c-0.3,2.8-0.5,5.6-0.5,8.5c0,42.6,34.6,77.2,77.2,77.2s77.2-34.6,77.2-77.2
				c0-2.9-0.2-5.7-0.5-8.5h0.5V-7.8z"/>
			</defs>
			<clipPath id="SVGID_4_">
				<use xlink:href="#SVGID_3_" style="overflow:visible;"/>
			</clipPath>
			<path class="st1" d="M69.3,102c3.8-2.4,6-10.6,6-12.3h30.5c0,1.7-0.5,9,3.3,11.4l-18.6,20.8L69.3,102z"/>
		</g>
		<g>
			<defs>
				<path id="SVGID_5_" d="M167.2-7.8H12.8v154.4h0.5c-0.3,2.8-0.5,5.6-0.5,8.5c0,42.6,34.6,77.2,77.2,77.2s77.2-34.6,77.2-77.2
				c0-2.9-0.2-5.7-0.5-8.5h0.5V-7.8z"/>
			</defs>
			<clipPath id="SVGID_6_">
				<use xlink:href="#SVGID_5_" style="overflow:visible;"/>
			</clipPath>
			<path class="st2" d="M102.4,108.3l6.7-7.2c-3.8-2.4-3.3-9.7-3.3-11.4H75.3C77.4,96,91.9,106.8,102.4,108.3"/>
		</g>
		<g>
			<defs>
				<path id="SVGID_7_" d="M167.2-7.8H12.8v154.4h0.5c-0.3,2.8-0.5,5.6-0.5,8.5c0,42.6,34.6,77.2,77.2,77.2s77.2-34.6,77.2-77.2
				c0-2.9-0.2-5.7-0.5-8.5h0.5V-7.8z"/>
			</defs>
			<clipPath id="SVGID_8_">
				<use xlink:href="#SVGID_7_" style="overflow:visible;"/>
			</clipPath>
			<path class="st3" d="M125.5,267.6c4-137.1,19.3-161.8,9.3-165l-24.3-4.8c-8.1,6.2-10.5,14.6-20,14.6s-13-8.4-21.1-14.6l-23.1,4.8
			c-10.1,3.2,8.4,27.9,12.4,165H125.5z"/>
		</g>
		<g>
			<defs>
				<path id="SVGID_9_" d="M167.2-7.8H12.8v154.4h0.5c-0.3,2.8-0.5,5.6-0.5,8.5c0,42.6,34.6,77.2,77.2,77.2s77.2-34.6,77.2-77.2
				c0-2.9-0.2-5.7-0.5-8.5h0.5V-7.8z"/>
			</defs>
			<clipPath id="SVGID_10_">
				<use xlink:href="#SVGID_9_" style="overflow:visible;"/>
			</clipPath>
			<path class="st4" d="M64.1,64.8c0,0,3.9,13.6,6.3,19.4c2.5,5.8,12,14.5,14.9,14.5s14.2-2.5,14.2-2.5s9.1-5,11.2-11.2
			s6.8-29.7,6.8-29.7l-1-10L89.9,35.2l-25,12L64.1,64.8z"/>
		</g>
		<g>
			<defs>
				<path id="SVGID_11_" d="M167.2-7.8H12.8v154.4h0.5c-0.3,2.8-0.5,5.6-0.5,8.5c0,42.6,34.6,77.2,77.2,77.2s77.2-34.6,77.2-77.2
				c0-2.9-0.2-5.7-0.5-8.5h0.5V-7.8z"/>
			</defs>
			<clipPath id="SVGID_12_">
				<use xlink:href="#SVGID_11_" style="overflow:visible;"/>
			</clipPath>
			<path class="st5" d="M116.7,48c0-14.3-11.6-26-26-26c-5.6,0-10.7,1.7-14.9,4.7C69.1,31.5,64.7,39.2,64.7,48
			c0,11.4,7.3,21,17.4,24.5c2.7,0.9,5.6,1.4,8.5,1.4C105,74,116.7,62.4,116.7,48z"/>
			<path class="st6" d="M82.2,72.6c2.7,0.9,5.6,1.4,8.5,1.4c14.3,0,26-11.6,26-26s-11.6-26-26-26c-5.6,0-10.7,1.7-14.9,4.7"/>
			<path class="st6" d="M85.3,98.7c0,0,18.9,1.1,25.3-13.6c2.6-6,6.8-29.7,6.8-29.7l-0.8-8.7l-36.8,9.8"/>
		</g>
		<g>
			<defs>
				<path id="SVGID_13_" d="M167.2-7.8H12.8v154.4h0.5c-0.3,2.8-0.5,5.6-0.5,8.5c0,42.6,34.6,77.2,77.2,77.2s77.2-34.6,77.2-77.2
				c0-2.9-0.2-5.7-0.5-8.5h0.5V-7.8z"/>
			</defs>
			<clipPath id="SVGID_14_">
				<use xlink:href="#SVGID_13_" style="overflow:visible;"/>
			</clipPath>
			<path class="st7" d="M137.7,106.3l-4.2,44.4l13.8,39.2l4.5,75.4c0,0,0.3,5.1,4.5,4.2l4.2-0.9v-3.3c0,0-0.4-81,0-82
			C160.9,182.2,137.7,106.3,137.7,106.3"/>
		</g>
		<g>
			<defs>
				<path id="SVGID_15_" d="M167.2-7.8H12.8v154.4h0.5c-0.3,2.8-0.5,5.6-0.5,8.5c0,42.6,34.6,77.2,77.2,77.2s77.2-34.6,77.2-77.2
				c0-2.9-0.2-5.7-0.5-8.5h0.5V-7.8z"/>
			</defs>
			<clipPath id="SVGID_16_">
				<use xlink:href="#SVGID_15_" style="overflow:visible;"/>
			</clipPath>
			<polygon class="st8" points="133,155.6 119.3,179.8 115.8,225.3 86.8,268.6 125.2,268.6 		"/>
		</g>
		<g>
			<defs>
				<path id="SVGID_17_" d="M167.2-7.8H12.8v154.4h0.5c-0.3,2.8-0.5,5.6-0.5,8.5c0,42.6,34.6,77.2,77.2,77.2s77.2-34.6,77.2-77.2
				c0-2.9-0.2-5.7-0.5-8.5h0.5V-7.8z"/>
			</defs>
			<clipPath id="SVGID_18_">
				<use xlink:href="#SVGID_17_" style="overflow:visible;"/>
			</clipPath>
		</g>
		<g>
			<defs>
				<path id="SVGID_19_" d="M167.2-7.8H12.8v154.4h0.5c-0.3,2.8-0.5,5.6-0.5,8.5c0,42.6,34.6,77.2,77.2,77.2s77.2-34.6,77.2-77.2
				c0-2.9-0.2-5.7-0.5-8.5h0.5V-7.8z"/>
			</defs>
			<clipPath id="SVGID_20_">
				<use xlink:href="#SVGID_19_" style="overflow:visible;"/>
			</clipPath>
			<path class="st9" d="M44.4,106.3l5,45.3l-14.6,38.3l-4.6,75.4c0,0-0.3,5.1-4.5,4.2l-4.2-0.9v-3.3c0,0,0.4-81,0-82
			C21.2,182.2,44.4,106.3,44.4,106.3"/>
		</g>
	</g>
	<polygon class="st10" points="68.5,78.9 70,85 74,91 80.5,96.6 85.3,100.5 90,100 99,97 108,92 111,86 112.4,79.7 113.6,74.8 
	115,68 112,65 108,76 102.3,81.7 94,82 89,79 82,79 80,82 "/>
	<polygon class="st11" points="90,100 99,97 108,92 111,86 112.4,79.7 113.6,74.8 115,68 112,65 108,76 102.3,81.7 94,82 89,79 
	92,85 90,89 92,95 "/>
</svg>
